1925247047
407623762
601838245
1313064166
2561391897
2737038666
3483854731
3804239832
1925384743
407423588
601415315
1313328832
2561619713
2736851794
3483534757
3804456934
1925389337
407846474
601728139
1313251032
2561399079
2736910692
3483496851
3804361152
1925611537
407670372
601606311
1312828634
2561580809
2737030474
3483617179
3804745704
1925412899
407622228
601824903
1313013952
2561658133
2736834918
3483794337
3804337606
